{
  "images" : [
    {
      "idiom" : "universal",
      "scale" : "1x",
      "filename" : "black_header_bg-1.png"
    },
    {
      "idiom" : "universal",
      "scale" : "2x",
      "filename" : "black_header_bg@2x-1.png"
    },
    {
      "idiom" : "iphone",
      "scale" : "1x",
      "filename" : "black_header_bg.png"
    },
    {
      "idiom" : "iphone",
      "scale" : "2x",
      "filename" : "black_header_bg@2x.png"
    }
  ],
  "info" : {
    "version" : 1,
    "author" : "xcode"
  }
}