{
  "images" : [
    {
      "idiom" : "iphone",
      "scale" : "1x",
      "filename" : "periods_full.png"
    },
    {
      "idiom" : "iphone",
      "scale" : "2x",
      "filename" : "periods_full@2x.png"
    },
    {
      "idiom" : "ipad",
      "scale" : "1x",
      "filename" : "periods_full_phone-1.png"
    },
    {
      "idiom" : "ipad",
      "scale" : "2x",
      "filename" : "periods_full_phone@2x-1.png"
    }
  ],
  "info" : {
    "version" : 1,
    "author" : "xcode"
  }
}