{
  "images" : [
    {
      "idiom" : "iphone",
      "scale" : "1x",
      "filename" : "twitter_selected.png"
    },
    {
      "idiom" : "iphone",
      "scale" : "2x",
      "filename" : "twitter_selected@2x.png"
    },
    {
      "idiom" : "ipad",
      "scale" : "1x",
      "filename" : "twitter_selected_ipad.png"
    },
    {
      "idiom" : "ipad",
      "scale" : "2x",
      "filename" : "twitter_selected_ipad@2x.png"
    }
  ],
  "info" : {
    "version" : 1,
    "author" : "xcode"
  }
}