{
  "images" : [
    {
      "idiom" : "iphone",
      "scale" : "1x",
      "filename" : "small_stepper_circle_highlighted_phone.png"
    },
    {
      "idiom" : "iphone",
      "scale" : "2x",
      "filename" : "small_stepper_circle_highlighted_phone@2x.png"
    },
    {
      "idiom" : "ipad",
      "scale" : "1x",
      "filename" : "small_stepper_circle_highlighted_phone-1.png"
    },
    {
      "idiom" : "ipad",
      "scale" : "2x",
      "filename" : "small_stepper_circle_highlighted_phone@2x-1.png"
    }
  ],
  "info" : {
    "version" : 1,
    "author" : "xcode"
  }
}