{
  "images" : [
    {
      "idiom" : "iphone",
      "scale" : "1x",
      "filename" : "games_button_normal_phone.png"
    },
    {
      "idiom" : "iphone",
      "scale" : "2x",
      "filename" : "games_button_normal_phone@2x.png"
    },
    {
      "idiom" : "ipad",
      "scale" : "1x",
      "filename" : "game_button_normal_ipad.png"
    },
    {
      "idiom" : "ipad",
      "scale" : "2x",
      "filename" : "game_button_normal_ipad@2x.png"
    }
  ],
  "info" : {
    "version" : 1,
    "author" : "xcode"
  }
}